…
<!-- end list -->

``` r
out_single_indicator <- single_indicator(
  input_results = r2dii.analysis::sample_results,
  upper_temp_threshold = 10,
  lower_temp_threshold = 1.5,
  start_year = 2019,
  time_horizon = 5,
  allocation = "PortfolioWeight",
  group_vars = c("Investor.Name", "Portfolio.Name", "Asset.Type")
)

out_single_indicator
#> # A tibble: 24 x 22
#>    Investor.Name Portfolio.Name Asset.Type Sector Allocation Technology
#>    <chr>         <chr>          <chr>      <chr>  <chr>      <chr>     
#>  1 Investor 1    Portfolio 1    Bonds      Autom… Portfolio… Electric  
#>  2 Investor 1    Portfolio 1    Bonds      Autom… Portfolio… Hybrid    
#>  3 Investor 1    Portfolio 1    Bonds      Autom… Portfolio… ICE       
#>  4 Investor 1    Portfolio 1    Bonds      Coal   Portfolio… Coal      
#>  5 Investor 1    Portfolio 1    Bonds      Oil&G… Portfolio… Gas       
#>  6 Investor 1    Portfolio 1    Bonds      Oil&G… Portfolio… Oil       
#>  7 Investor 1    Portfolio 1    Bonds      Power  Portfolio… CoalCap   
#>  8 Investor 1    Portfolio 1    Bonds      Power  Portfolio… GasCap    
#>  9 Investor 1    Portfolio 1    Bonds      Power  Portfolio… HydroCap  
#> 10 Investor 1    Portfolio 1    Bonds      Power  Portfolio… NuclearCap
#> # … with 14 more rows, and 16 more variables: temp_lower <dbl>,
#> #   temp_reference <dbl>, temp_upper <dbl>, scen_tech_prod_lower <dbl>,
#> #   scen_tech_prod_reference <dbl>, scen_tech_prod_upper <dbl>,
#> #   plan_tech_prod <dbl>, temp_lower_range <dbl>, temp_upper_range <dbl>,
#> #   scen_tech_prod_upper_bound <dbl>, scen_tech_prod_lower_bound <dbl>,
#> #   scen_plan_prod_diff <dbl>, factor <dbl>, temperature <dbl>,
#> #   ScenarioGeography <chr>, Scenario <chr>
```
…
