…
### Add Scenario Targets

- Use
  [`target_sda()`](https://rmi-pacta.github.io/r2dii.analysis/dev/reference/target_sda.md)
  to calculate SDA targets of CO₂ emissions.

``` r
matched %>%
  target_sda(
    abcd = abcd_demo,
    co2_intensity_scenario = co2_intensity_scenario_demo,
    region_isos = region_isos_demo
  )
#> Warning: Removing rows in abcd where `emission_factor` is NA
#> # A tibble: 220 × 6
#>    sector  year region             scenario_source emission_factor_metric
#>    <chr>  <dbl> <chr>              <chr>           <chr>                 
#>  1 cement  2020 advanced economies demo_2020       projected             
#>  2 cement  2020 developing asia    demo_2020       projected             
#>  3 cement  2020 global             demo_2020       projected             
#>  4 cement  2021 advanced economies demo_2020       projected             
#>  5 cement  2021 developing asia    demo_2020       projected             
#>  6 cement  2021 global             demo_2020       projected             
#>  7 cement  2022 advanced economies demo_2020       projected             
#>  8 cement  2022 developing asia    demo_2020       projected             
#>  9 cement  2022 global             demo_2020       projected             
#> 10 cement  2023 advanced economies demo_2020       projected             
#> # ℹ 210 more rows
#> # ℹ 1 more variable: emission_factor_value <dbl>
```

- Use `target_market_share` to calculate market-share scenario targets
  at the portfolio level:

``` r
matched %>%
  target_market_share(
    abcd = abcd_demo,
    scenario = scenario_demo_2020,
    region_isos = region_isos_demo
  )
#> # A tibble: 1,210 × 10
#>    sector     technology  year region scenario_source metric     production
#>    <chr>      <chr>      <int> <chr>  <chr>           <chr>           <dbl>
#>  1 automotive electric    2020 global demo_2020       projected     145649.
#>  2 automotive electric    2020 global demo_2020       target_cps    145649.
#>  3 automotive electric    2020 global demo_2020       target_sds    145649.
#>  4 automotive electric    2020 global demo_2020       target_sps    145649.
#>  5 automotive electric    2021 global demo_2020       projected     147480.
#>  6 automotive electric    2021 global demo_2020       target_cps    148314.
#>  7 automotive electric    2021 global demo_2020       target_sds    161823.
#>  8 automotive electric    2021 global demo_2020       target_sps    149035.
#>  9 automotive electric    2022 global demo_2020       projected     149310.
#> 10 automotive electric    2022 global demo_2020       target_cps    150923.
#> # ℹ 1,200 more rows
#> # ℹ 3 more variables: technology_share <dbl>, scope <chr>,
#> #   percentage_of_initial_production_by_scope <dbl>
```
- Or at the company level:

``` r
matched %>%
  target_market_share(
    abcd = abcd_demo,
    scenario = scenario_demo_2020,
    region_isos = region_isos_demo,
    by_company = TRUE
  )
#> Warning: You've supplied `by_company = TRUE` and `weight_production = TRUE`.
#> This will result in company-level results, weighted by the portfolio
#> loan size, which is rarely useful. Did you mean to set one of these
#> arguments to `FALSE`?
#> # A tibble: 37,349 × 11
#>    sector    technology  year region scenario_source name_abcd metric production
#>    <chr>     <chr>      <int> <chr>  <chr>           <chr>     <chr>       <dbl>
#>  1 automoti… electric    2020 global demo_2020       Bahr      proje…          0
#>  2 automoti… electric    2020 global demo_2020       Bahr      targe…          0
#>  3 automoti… electric    2020 global demo_2020       Bahr      targe…          0
#>  4 automoti… electric    2020 global demo_2020       Bahr      targe…          0
#>  5 automoti… electric    2020 global demo_2020       Beier, B… proje…          0
#>  6 automoti… electric    2020 global demo_2020       Beier, B… targe…          0
#>  7 automoti… electric    2020 global demo_2020       Beier, B… targe…          0
#>  8 automoti… electric    2020 global demo_2020       Beier, B… targe…          0
#>  9 automoti… electric    2020 global demo_2020       Bellini,… proje…          0
#> 10 automoti… electric    2020 global demo_2020       Bellini,… targe…          0
#> # ℹ 37,339 more rows
#> # ℹ 3 more variables: technology_share <dbl>, scope <chr>,
#> #   percentage_of_initial_production_by_scope <dbl>
```
…
