Indicator Choices: • r2dii.analysis
…
master <- loanbook_demo %>%
  match_name(abcd_demo) %>%
  prioritize() %>%
  join_abcd_scenario(
    abcd = abcd_demo,
    scenario = scenario_demo_2020,
    region_isos = region_isos_demo,
    add_green_technologies = FALSE
  )

summarize_weighted_production(master)
#> # A tibble: 168 × 5
#>    sector_abcd technology  year weighted_production weighted_technology_share
#>    <chr>       <chr>      <int>               <dbl>                     <dbl>
#>  1 automotive  electric    2020             436948.                     0.481
#>  2 automotive  electric    2021             442439.                     0.480
#>  3 automotive  electric    2022             447929.                     0.480
#>  4 automotive  electric    2023             453420.                     0.479
#>  5 automotive  electric    2024             458910.                     0.479
#>  6 automotive  electric    2025             464401.                     0.479
#>  7 automotive  electric    2026                 NA                     NA    
#>  8 automotive  electric    2027                 NA                     NA    
#>  9 automotive  electric    2028                 NA                     NA    
#> 10 automotive  electric    2029                 NA                     NA    
#> # ℹ 158 more rows
…
It should be noted that the percent change, \(\chi\), is undefined for 0 initial
production. Intuitively, this makes sense, since you would require an
“infinite percent” build-out to grow to anything from 0. For this
reason, any company having 0 initial production is filtered out prior to
calculating the percent change indicator.

To calculate the weighted percent change:

# using the master dataset defined in the previous chunk:
summarize_weighted_percent_change(master)
#> # A tibble: 168 × 4
#>    sector_abcd technology  year weighted_percent_change
#>    <chr>       <chr>      <int>                   <dbl>
#>  1 automotive  electric    2020               0        
#>  2 automotive  electric    2021               0.0000626
#>  3 automotive  electric    2022               0.000125 
#>  4 automotive  electric    2023               0.000188 
#>  5 automotive  electric    2024               0.000250 
#>  6 automotive  electric    2025               0.000313 
#>  7 automotive  electric    2026              NA        
#>  8 automotive  electric    2027              NA        
#>  9 automotive  electric    2028              NA        
#> 10 automotive  electric    2029              NA        
#> # ℹ 158 more rows
…
