Introduction to r2dii.analysis • r2dii.analysis
…
Match your loanbook to climate-related asset-level data

See r2dii.match for a more complete description of this process.

# Use these datasets to practice but eventually you should use your own data.
# The optional syntax `package::data` is to clarify where the data comes from.
loanbook <- r2dii.data::loanbook_demo
ald <- r2dii.data::ald_demo

matched <- match_name(loanbook, ald) %>% prioritize()

matched
#> # A tibble: 217 × 28
#>    id_loan id_direct_loantak… name_direct_loa… id_intermediate… name_intermedia…
#>    <chr>   <chr>              <chr>            <chr>            <chr>           
#>  1 L6      C304               Yukon Developme… NA               NA              
#>  2 L13     C297               Yuba City Cogen… NA               NA              
#>  3 L20     C287               Ytl Powerseraya… NA               NA              
#>  4 L21     C286               Ytl Power Inter… NA               NA              
#>  5 L22     C285               Ytl Corp Bhd     NA               NA              
#>  6 L23     C283               Ypic Internatio… NA               NA              
#>  7 L24     C282               Ypfb Corporacion NA               NA              
#>  8 L25     C281               Ypf Sa           NA               NA              
#>  9 L26     C280               Ypf Energia Ele… NA               NA              
#> 10 L27     C278               Younicos Ag      NA               NA              
#> # … with 207 more rows, and 23 more variables: id_ultimate_parent <chr>,
#> #   name_ultimate_parent <chr>, loan_size_outstanding <dbl>,
#> #   loan_size_outstanding_currency <chr>, loan_size_credit_limit <dbl>,
#> #   loan_size_credit_limit_currency <chr>, sector_classification_system <chr>,
#> #   sector_classification_input_type <chr>,
#> #   sector_classification_direct_loantaker <dbl>, fi_type <chr>,
#> #   flag_project_finance_loan <chr>, name_project <lgl>, …
…
Targets can be set at the portfolio level:

# Use these datasets to practice but eventually you should use your own data.
scenario <- r2dii.data::scenario_demo_2020
regions <- r2dii.data::region_isos_demo

market_share_targets_portfolio <- matched %>%
  target_market_share(
    ald = ald,
    scenario = scenario,
    region_isos = regions
  )

market_share_targets_portfolio
#> # A tibble: 1,790 × 10
#>    sector     technology  year region scenario_source metric     production
#>    <chr>      <chr>      <int> <chr>  <chr>           <chr>           <dbl>
#>  1 automotive electric    2020 global demo_2020       projected     324592.
#>  2 automotive electric    2020 global demo_2020       target_cps    324592.
#>  3 automotive electric    2020 global demo_2020       target_sds    324592.
#>  4 automotive electric    2020 global demo_2020       target_sps    324592.
#>  5 automotive electric    2021 global demo_2020       projected     339656.
#>  6 automotive electric    2021 global demo_2020       target_cps    329191.
#>  7 automotive electric    2021 global demo_2020       target_sds    352505.
#>  8 automotive electric    2021 global demo_2020       target_sps    330435.
#>  9 automotive electric    2022 global demo_2020       projected     354720.
#> 10 automotive electric    2022 global demo_2020       target_cps    333693.
#> # … with 1,780 more rows, and 3 more variables: technology_share <dbl>,
#> #   scope <chr>, percentage_of_initial_production_by_scope <dbl>
…
market_share_targets_company <- matched %>%
  target_market_share(
    ald = ald,
    scenario = scenario,
    region_isos = regions,
    # Output results at company-level.
    by_company = TRUE 
  )
#> Warning: You've supplied `by_company = TRUE` and `weight_production = TRUE`.
#> This will result in company-level results, weighted by the portfolio
#> loan size, which is rarely useful. Did you mean to set one of these
#> arguments to `FALSE`?

market_share_targets_company
#> # A tibble: 32,402 × 11
#>    sector     technology  year region scenario_source name_ald metric production
#>    <chr>      <chr>      <int> <chr>  <chr>           <chr>    <chr>       <dbl>
#>  1 automotive electric    2020 global demo_2020       toyota … proje…    324592.
#>  2 automotive electric    2020 global demo_2020       toyota … targe…    324592.
#>  3 automotive electric    2020 global demo_2020       toyota … targe…    324592.
#>  4 automotive electric    2020 global demo_2020       toyota … targe…    324592.
#>  5 automotive electric    2021 global demo_2020       toyota … proje…    339656.
#>  6 automotive electric    2021 global demo_2020       toyota … targe…    329191.
#>  7 automotive electric    2021 global demo_2020       toyota … targe…    352505.
#>  8 automotive electric    2021 global demo_2020       toyota … targe…    330435.
#>  9 automotive electric    2022 global demo_2020       toyota … proje…    354720.
#> 10 automotive electric    2022 global demo_2020       toyota … targe…    333693.
#> # … with 32,392 more rows, and 3 more variables: technology_share <dbl>,
#> #   scope <chr>, percentage_of_initial_production_by_scope <dbl>

Sectoral Decarbonization Approach

The Sectoral Decarbonization Approach is used to calculate scenario targets for the emission_factor of a sector. For example, you can use this approach to set targets for the average emission factor of the cement sector. This approach is recommended for sectors lacking technology roadmaps.

# Use this dataset to practice but eventually you should use your own data.
co2 <- r2dii.data::co2_intensity_scenario_demo

sda_targets <- matched %>%
  target_sda(ald = ald, co2_intensity_scenario = co2, region_isos = regions) %>% 
  filter(sector == "cement", year >= 2020)
#> Warning: Removing ald rows where `emission_factor` is NA

sda_targets
#> # A tibble: 110 × 6
#>    sector  year region         scenario_source emission_factor… emission_factor…
#>    <chr>  <dbl> <chr>          <chr>           <chr>                       <dbl>
#>  1 cement  2020 advanced econ… demo_2020       projected                  0.0230
#>  2 cement  2020 developing as… demo_2020       projected                  0.0595
#>  3 cement  2020 global         demo_2020       projected                  0.664 
#>  4 cement  2021 advanced econ… demo_2020       projected                  0.0232
#>  5 cement  2021 developing as… demo_2020       projected                  0.0594
#>  6 cement  2021 global         demo_2020       projected                  0.665 
#>  7 cement  2022 advanced econ… demo_2020       projected                  0.0233
#>  8 cement  2022 developing as… demo_2020       projected                  0.0592
#>  9 cement  2022 global         demo_2020       projected                  0.666 
#> 10 cement  2023 advanced econ… demo_2020       projected                  0.0235
#> # … with 100 more rows
…
