…
- Match the loanbook to asset level data.

``` r
loanbook <- r2dii.data::loanbook_demo
abcd <- r2dii.data::abcd_demo

matched <- match_name(loanbook, abcd) %>%
  # WARNING: Remember to validate the output of match_name() before prioritize()
  prioritize()

matched
#> # A tibble: 177 × 22
#>    id_loan id_direct_loantaker name_direct_loantaker          id_ultimate_parent
#>    <chr>   <chr>               <chr>                          <chr>             
#>  1 L6      C304                Kassulke-Kassulke              UP83              
#>  2 L13     C297                Ladeck                         UP69              
#>  3 L20     C287                Weinhold                       UP35              
#>  4 L21     C286                Gallo Group                    UP63              
#>  5 L22     C285                Austermuhle GmbH               UP187             
#>  6 L24     C282                Ferraro-Ferraro Group          UP209             
#>  7 L25     C281                Lockman, Lockman and Lockman   UP296             
#>  8 L26     C280                Ankunding, Ankunding and Anku… UP67              
#>  9 L27     C278                Donati-Donati Group            UP45              
#> 10 L28     C276                Ferraro, Ferraro e Ferraro SPA UP195             
#> # ℹ 167 more rows
#> # ℹ 18 more variables: name_ultimate_parent <chr>, loan_size_outstanding <dbl>,
#> #   loan_size_outstanding_currency <chr>, loan_size_credit_limit <dbl>,
#> #   loan_size_credit_limit_currency <chr>, sector_classification_system <chr>,
#> #   sector_classification_direct_loantaker <chr>, lei_direct_loantaker <chr>,
#> #   isin_direct_loantaker <chr>, id_2dii <chr>, level <chr>, sector <chr>,
#> #   sector_abcd <chr>, name <chr>, name_abcd <chr>, score <dbl>, …
```

- Calculate market-share targets for production at the portfolio level.

``` r
# portfolio level targets
scenario <- r2dii.data::scenario_demo_2020
regions <- r2dii.data::region_isos_demo


matched %>% target_market_share(abcd, scenario, regions)
#> # A tibble: 1,076 × 10
#>    sector     technology  year region scenario_source metric     production
#>    <chr>      <chr>      <int> <chr>  <chr>           <chr>           <dbl>
#>  1 automotive electric    2020 global demo_2020       projected     145649.
#>  2 automotive electric    2020 global demo_2020       target_cps    145649.
#>  3 automotive electric    2020 global demo_2020       target_sds    145649.
#>  4 automotive electric    2020 global demo_2020       target_sps    145649.
#>  5 automotive electric    2021 global demo_2020       projected     147480.
#>  6 automotive electric    2021 global demo_2020       target_cps    146915.
#>  7 automotive electric    2021 global demo_2020       target_sds    153332.
#>  8 automotive electric    2021 global demo_2020       target_sps    147258.
#>  9 automotive electric    2022 global demo_2020       projected     149310.
#> 10 automotive electric    2022 global demo_2020       target_cps    148155.
#> # ℹ 1,066 more rows
#> # ℹ 3 more variables: technology_share <dbl>, scope <chr>,
#> #   percentage_of_initial_production_by_scope <dbl>
```

- Calculate market-share targets for production at the company level.

``` r
matched %>% target_market_share(abcd, scenario, regions, by_company = TRUE)
#> Warning: You've supplied `by_company = TRUE` and `weight_production = TRUE`.
#> This will result in company-level results, weighted by the portfolio
#> loan size, which is rarely useful. Did you mean to set one of these
#> arguments to `FALSE`?
#> # A tibble: 14,505 × 11
#>    sector    technology  year region scenario_source name_abcd metric production
#>    <chr>     <chr>      <int> <chr>  <chr>           <chr>     <chr>       <dbl>
#>  1 automoti… electric    2020 global demo_2020       Bernardi… proje…     17951.
#>  2 automoti… electric    2020 global demo_2020       Bernardi… targe…     17951.
#>  3 automoti… electric    2020 global demo_2020       Bernardi… targe…     17951.
#>  4 automoti… electric    2020 global demo_2020       Bernardi… targe…     17951.
#>  5 automoti… electric    2020 global demo_2020       Christia… proje…     11471.
#>  6 automoti… electric    2020 global demo_2020       Christia… targe…     11471.
#>  7 automoti… electric    2020 global demo_2020       Christia… targe…     11471.
#>  8 automoti… electric    2020 global demo_2020       Christia… targe…     11471.
#>  9 automoti… electric    2020 global demo_2020       Donati, … proje…      5611.
#> 10 automoti… electric    2020 global demo_2020       Donati, … targe…      5611.
#> # ℹ 14,495 more rows
#> # ℹ 3 more variables: technology_share <dbl>, scope <chr>,
#> #   percentage_of_initial_production_by_scope <dbl>
```
