…
- Match the loanbook to asset level data.

``` r
loanbook <- r2dii.data::loanbook_demo
abcd <- r2dii.data::abcd_demo

matched <- match_name(loanbook, abcd) %>%
  # WARNING: Remember to validate the output of match_name() before prioritize()
  prioritize()

matched
#> # A tibble: 177 × 22
#>    id_loan id_direct_loantaker name_direct_loantaker          id_ultimate_parent
#>    <chr>   <chr>               <chr>                          <chr>             
#>  1 L6      C304                Kassulke-Kassulke              UP83              
#>  2 L13     C297                Ladeck                         UP69              
#>  3 L20     C287                Weinhold                       UP35              
#>  4 L21     C286                Gallo Group                    UP63              
#>  5 L22     C285                Austermuhle GmbH               UP187             
#>  6 L24     C282                Ferraro-Ferraro Group          UP209             
#>  7 L25     C281                Lockman, Lockman and Lockman   UP296             
#>  8 L26     C280                Ankunding, Ankunding and Anku… UP67              
#>  9 L27     C278                Donati-Donati Group            UP45              
#> 10 L28     C276                Ferraro, Ferraro e Ferraro SPA UP195             
#> # ℹ 167 more rows
#> # ℹ 18 more variables: name_ultimate_parent <chr>, loan_size_outstanding <dbl>,
#> #   loan_size_outstanding_currency <chr>, loan_size_credit_limit <dbl>,
#> #   loan_size_credit_limit_currency <chr>, sector_classification_system <chr>,
#> #   sector_classification_direct_loantaker <chr>, lei_direct_loantaker <chr>,
#> #   isin_direct_loantaker <chr>, id_2dii <chr>, level <chr>, sector <chr>,
#> #   sector_abcd <chr>, name <chr>, name_abcd <chr>, score <dbl>, …
```
…
