Sectoral Decarbonization Approach (SDA) • r2dii.analysis
…
library(r2dii.data)
library(r2dii.match)
library(r2dii.analysis)

Match the loanbook to asset level data.

loanbook <- r2dii.data::loanbook_demo
abcd <- r2dii.data::abcd_demo

matched <- match_name(loanbook, abcd) %>%
  # WARNING: Remember to validate the output of match_name() before prioritize()
  prioritize()

matched
#> # A tibble: 216 × 28
#>    id_loan id_direct_loantak… name_direct_loa… id_intermediate… name_intermedia…
#>    <chr>   <chr>              <chr>            <chr>            <chr>           
#>  1 L6      C304               Yukon Developme… NA               NA              
#>  2 L13     C297               Yuba City Cogen… NA               NA              
#>  3 L20     C287               Ytl Powerseraya… NA               NA              
#>  4 L21     C286               Ytl Power Inter… NA               NA              
#>  5 L22     C285               Ytl Corp Bhd     NA               NA              
#>  6 L23     C283               Ypic Internatio… NA               NA              
#>  7 L24     C282               Ypfb Corporacion NA               NA              
#>  8 L25     C281               Ypf Sa           NA               NA              
#>  9 L26     C280               Ypf Energia Ele… NA               NA              
#> 10 L27     C278               Younicos Ag      NA               NA              
#> # … with 206 more rows, and 23 more variables: id_ultimate_parent <chr>,
#> #   name_ultimate_parent <chr>, loan_size_outstanding <dbl>,
#> #   loan_size_outstanding_currency <chr>, loan_size_credit_limit <dbl>,
#> #   loan_size_credit_limit_currency <chr>, sector_classification_system <chr>,
#> #   sector_classification_input_type <chr>,
#> #   sector_classification_direct_loantaker <dbl>, fi_type <chr>,
#> #   flag_project_finance_loan <chr>, name_project <lgl>, …
…
