Join a data-loanbook object to the abcd and scenario — join_abcd_scenario • r2dii.analysis
…
valid_matches <- match_name(loanbook_demo, abcd_demo) %>%
  # WARNING: Remember to validate matches (see `?prioritize`)
  prioritize()

valid_matches %>%
  join_abcd_scenario(
    abcd = abcd_demo,
    scenario = scenario_demo_2020,
    region_isos = region_isos_demo
  )
#> Warning: `join_abcd_scenario()` was deprecated in r2dii.analysis 0.5.0.
#> # A tibble: 14,592 × 37
#>    id_loan id_direct_loantaker name_direct_loantaker id_ultimate_parent
#>    <chr>   <chr>               <chr>                 <chr>             
#>  1 L6      C304                Kassulke-Kassulke     UP83              
#>  2 L6      C304                Kassulke-Kassulke     UP83              
#>  3 L6      C304                Kassulke-Kassulke     UP83              
#>  4 L6      C304                Kassulke-Kassulke     UP83              
#>  5 L6      C304                Kassulke-Kassulke     UP83              
#>  6 L6      C304                Kassulke-Kassulke     UP83              
#>  7 L6      C304                Kassulke-Kassulke     UP83              
#>  8 L6      C304                Kassulke-Kassulke     UP83              
#>  9 L6      C304                Kassulke-Kassulke     UP83              
#> 10 L6      C304                Kassulke-Kassulke     UP83              
#> # ℹ 14,582 more rows
#> # ℹ 33 more variables: name_ultimate_parent <chr>, loan_size_outstanding <dbl>,
#> #   loan_size_outstanding_currency <chr>, loan_size_credit_limit <dbl>,
#> #   loan_size_credit_limit_currency <chr>, sector_classification_system <chr>,
#> #   sector_classification_direct_loantaker <chr>, lei_direct_loantaker <chr>,
#> #   isin_direct_loantaker <chr>, id_2dii <chr>, level <chr>, sector <chr>,
#> #   sector_abcd <chr>, name <chr>, name_abcd <chr>, score <dbl>, …
…
