Calculate portfolio targets using the Sectoral Decarbonisation Approach (SDA) — sda_portfolio_target • r2dii.analysis
…
# Use a toy configuration file
restore_options <- options(r2dii_config = example_config("config_demo.yml"))
on.exit(restore_options)

# Use `start_year` from the configuration file
START.YEAR()
#> [1] 2019
sda_portfolio_target(market, portfolio)
#> Warning: Skipping sectors not present in both `market` and `portfolio`:
#> Cement, Power, Oil&Gas, Coal, Aviation, FossilFuels, Shipping, Automotive.
#> * Using `sector`: Steel.
#> * Using `start_year`: 2019.
#> * Using `target_year`: 2040.
#> # A tibble: 24 x 9
#>    Allocation Sector Scenario ScenarioGeograp… Investor.Name Portfolio.Name
#>    <chr>      <chr>  <chr>    <chr>            <chr>         <chr>         
#>  1 Portfolio… Steel  B2DS     Global           Investor1     Portfolio1    
#>  2 Portfolio… Steel  B2DS     Global           Investor1     Portfolio1    
#>  3 Portfolio… Steel  B2DS     Global           Investor1     Portfolio1    
#>  4 Portfolio… Steel  B2DS     Global           Investor1     Portfolio1    
#>  5 Portfolio… Steel  B2DS     Global           Investor1     Portfolio1    
#>  6 Portfolio… Steel  B2DS     Global           Investor1     Portfolio1    
#>  7 Portfolio… Steel  B2DS     Global           Investor1     Portfolio1    
#>  8 Portfolio… Steel  B2DS     Global           Investor1     Portfolio1    
#>  9 Portfolio… Steel  B2DS     Global           Investor1     Portfolio1    
#> 10 Portfolio… Steel  B2DS     Global           Investor1     Portfolio1    
#> # … with 14 more rows, and 3 more variables: Scen.Sec.EmissionsFactor <dbl>,
#> #   Year <int>, Plan.Sec.EmissionsFactor <dbl>

sda_portfolio_target(market, portfolio, sector = "Steel")
#> * Using `sector`: Steel.
#> * Using `start_year`: 2019.
#> * Using `target_year`: 2040.
#> # A tibble: 24 x 9
#>    Allocation Sector Scenario ScenarioGeograp… Investor.Name Portfolio.Name
#>    <chr>      <chr>  <chr>    <chr>            <chr>         <chr>         
#>  1 Portfolio… Steel  B2DS     Global           Investor1     Portfolio1    
#>  2 Portfolio… Steel  B2DS     Global           Investor1     Portfolio1    
#>  3 Portfolio… Steel  B2DS     Global           Investor1     Portfolio1    
#>  4 Portfolio… Steel  B2DS     Global           Investor1     Portfolio1    
#>  5 Portfolio… Steel  B2DS     Global           Investor1     Portfolio1    
#>  6 Portfolio… Steel  B2DS     Global           Investor1     Portfolio1    
#>  7 Portfolio… Steel  B2DS     Global           Investor1     Portfolio1    
#>  8 Portfolio… Steel  B2DS     Global           Investor1     Portfolio1    
#>  9 Portfolio… Steel  B2DS     Global           Investor1     Portfolio1    
#> 10 Portfolio… Steel  B2DS     Global           Investor1     Portfolio1    
#> # … with 14 more rows, and 3 more variables: Scen.Sec.EmissionsFactor <dbl>,
#> #   Year <int>, Plan.Sec.EmissionsFactor <dbl>
…
# Passes
sda_portfolio_target(market, portfolio, start_year = "2019")
#> Warning: Skipping sectors not present in both `market` and `portfolio`:
#> Cement, Power, Oil&Gas, Coal, Aviation, FossilFuels, Shipping, Automotive.
#> * Using `sector`: Steel.
#> * Using `start_year`: 2019.
#> * Using `target_year`: 2040.
#> # A tibble: 24 x 9
#>    Allocation Sector Scenario ScenarioGeograp… Investor.Name Portfolio.Name
#>    <chr>      <chr>  <chr>    <chr>            <chr>         <chr>         
#>  1 Portfolio… Steel  B2DS     Global           Investor1     Portfolio1    
#>  2 Portfolio… Steel  B2DS     Global           Investor1     Portfolio1    
#>  3 Portfolio… Steel  B2DS     Global           Investor1     Portfolio1    
#>  4 Portfolio… Steel  B2DS     Global           Investor1     Portfolio1    
#>  5 Portfolio… Steel  B2DS     Global           Investor1     Portfolio1    
#>  6 Portfolio… Steel  B2DS     Global           Investor1     Portfolio1    
#>  7 Portfolio… Steel  B2DS     Global           Investor1     Portfolio1    
#>  8 Portfolio… Steel  B2DS     Global           Investor1     Portfolio1    
#>  9 Portfolio… Steel  B2DS     Global           Investor1     Portfolio1    
#> 10 Portfolio… Steel  B2DS     Global           Investor1     Portfolio1    
#> # … with 14 more rows, and 3 more variables: Scen.Sec.EmissionsFactor <dbl>,
#> #   Year <int>, Plan.Sec.EmissionsFactor <dbl>
…
