Join a data-loanbook object to the ald and scenario — join_ald_scenario • r2dii.analysis
…
library(r2dii.data)
library(r2dii.match)

valid_matches <- match_name(loanbook_demo, ald_demo) %>%
  # WARNING: Remember to validate matches (see `?prioritize`)
  prioritize()

valid_matches %>%
  join_ald_scenario(
    ald = ald_demo,
    scenario = scenario_demo_2020,
    region_isos = region_isos_demo
  )

#> # A tibble: 9,099 x 45
#>    id_loan id_direct_loanta… name_direct_loan… id_intermediate… name_intermedia…
#>    <chr>   <chr>             <chr>             <chr>            <chr>           
#>  1 L6      C304              Yukon Developmen… NA               NA              
#>  2 L6      C304              Yukon Developmen… NA               NA              
#>  3 L6      C304              Yukon Developmen… NA               NA              
#>  4 L6      C304              Yukon Developmen… NA               NA              
#>  5 L6      C304              Yukon Developmen… NA               NA              
#>  6 L6      C304              Yukon Developmen… NA               NA              
#>  7 L6      C304              Yukon Developmen… NA               NA              
#>  8 L6      C304              Yukon Developmen… NA               NA              
#>  9 L6      C304              Yukon Developmen… NA               NA              
#> 10 L6      C304              Yukon Developmen… NA               NA              
#> # … with 9,089 more rows, and 40 more variables: id_ultimate_parent <chr>,
#> #   name_ultimate_parent <chr>, loan_size_outstanding <dbl>,
#> #   loan_size_outstanding_currency <chr>, loan_size_credit_limit <dbl>,
#> #   loan_size_credit_limit_currency <chr>, sector_classification_system <chr>,
#> #   sector_classification_input_type <chr>,
#> #   sector_classification_direct_loantaker <dbl>, fi_type <chr>,
#> #   flag_project_finance_loan <chr>, name_project <lgl>,
#> #   lei_direct_loantaker <lgl>, isin_direct_loantaker <lgl>, id_2dii <chr>,
#> #   level <chr>, sector <chr>, sector_ald <chr>, name <chr>, name_ald <chr>,
…
