Summaries based on the weight of each loan per sector per year — summarize_weighted_production • r2dii.analysis
…
  summarize_weighted_production(master)

  summarize_weighted_production(master, use_credit_limit = TRUE)

  summarize_weighted_percent_change(master)

  summarize_weighted_percent_change(master, use_credit_limit = TRUE)
}
#> # A tibble: 42 × 4
#>    sector_abcd technology  year weighted_percent_change
#>    <chr>       <chr>      <int>                   <dbl>
#>  1 power       hydrocap    2020                   0    
#>  2 power       hydrocap    2021                  -0.663
#>  3 power       hydrocap    2022                  -1.33 
#>  4 power       hydrocap    2023                  -1.99 
#>  5 power       hydrocap    2024                  -2.65 
#>  6 power       hydrocap    2025                  -3.32 
#>  7 power       hydrocap    2026                  -3.98 
#>  8 power       hydrocap    2027                  -4.64 
#>  9 power       hydrocap    2028                  -5.31 
#> 10 power       hydrocap    2029                  -5.97 
#> # ℹ 32 more rows
…
