Add targets for production, using the market share approach — target_market_share • r2dii.analysis
…
  matched %>%
    target_market_share(
      abcd = abcd,
      scenario = scenario_demo_2020,
      region_isos = region_isos_demo,
      # Calculate unweighted targets
      weight_production = FALSE
    )
}
#> Warning: You've supplied `by_company = TRUE` and `weight_production = TRUE`.
#> This will result in company-level results, weighted by the portfolio
#> loan size, which is rarely useful. Did you mean to set one of these
#> arguments to `FALSE`?
#> # A tibble: 315 × 10
#>    sector technology  year region scenario_source metric     production
#>    <chr>  <chr>      <int> <chr>  <chr>           <chr>           <dbl>
#>  1 power  hydrocap    2020 global demo_2020       projected     121032.
#>  2 power  hydrocap    2020 global demo_2020       target_cps    121032.
#>  3 power  hydrocap    2020 global demo_2020       target_sds    121032.
#>  4 power  hydrocap    2020 global demo_2020       target_sps    121032.
#>  5 power  hydrocap    2021 global demo_2020       projected     119274.
#>  6 power  hydrocap    2021 global demo_2020       target_cps    121141.
#>  7 power  hydrocap    2021 global demo_2020       target_sds    121205.
#>  8 power  hydrocap    2021 global demo_2020       target_sps    121151.
#>  9 power  hydrocap    2022 global demo_2020       projected     117515.
#> 10 power  hydrocap    2022 global demo_2020       target_cps    121250.
#> # … with 305 more rows, and 3 more variables: technology_share <dbl>,
#> #   scope <chr>, percentage_of_initial_production_by_scope <dbl>
…
