Bank Workflow • r2dii.analysis
…
library(r2dii.data)
library(r2dii.match)
library(r2dii.analysis)

Matching

For analysis of a lending portfolio, r2dii.analysis picks up where r2dii.match leaves off. The following assumes that the loanbook has already been matched and validated against the ald (how to validate matches).

valid_matches <- match_name(loanbook_demo, ald_demo) %>% 
  # WARNING: Remember to validate the output of match_name() before prioritize()
  prioritize()

valid_matches
#> # A tibble: 267 x 27
#>    id_loan id_direct_loant… name_direct_loa… id_intermediate… name_intermedia…
#>    <chr>   <chr>            <chr>            <chr>            <chr>           
#>  1 L151    C168             Shaanxi Auto     <NA>             <NA>            
#>  2 L152    C169             Shandong Auto    <NA>             <NA>            
#>  3 L153    C170             Shandong Kama    <NA>             <NA>            
#>  4 L154    C171             Shandong Tangju… <NA>             <NA>            
#>  5 L155    C173             Shanghai Automo… <NA>             <NA>            
#>  6 L156    C176             Shanxi Dayun     <NA>             <NA>            
#>  7 L157    C178             Shenyang Polars… <NA>             <NA>            
#>  8 L158    C180             Shuanghuan Auto  <NA>             <NA>            
#>  9 L159    C182             Sichuan Auto     <NA>             <NA>            
#> 10 L160    C184             Singulato        <NA>             <NA>            
#> # … with 257 more rows, and 22 more variables: id_ultimate_parent <chr>,
#> #   name_ultimate_parent <chr>, loan_size_outstanding <dbl>,
#> #   loan_size_outstanding_currency <chr>, loan_size_credit_limit <dbl>,
#> #   loan_size_credit_limit_currency <chr>, sector_classification_system <chr>,
#> #   sector_classification_input_type <chr>,
#> #   sector_classification_direct_loantaker <dbl>, fi_type <chr>,
#> #   flag_project_finance_loan <chr>, name_project <lgl>,
#> #   lei_direct_loantaker <lgl>, isin_direct_loantaker <lgl>, id_2dii <chr>,
#> #   level <chr>, sector <chr>, sector_ald <chr>, name <chr>, name_ald <chr>,
…
