…
summarize_weighted_production(master)
#> Warning: `summarize_weighted_production()` was deprecated in r2dii.analysis 0.5.0.
#> This warning is displayed once per session.
#> Call `lifecycle::last_lifecycle_warnings()` to see where this warning was
#> generated.
#> # A tibble: 168 × 5
#>    sector_abcd technology  year weighted_production weighted_technology_share
#>    <chr>       <chr>      <int>               <dbl>                     <dbl>
#>  1 automotive  electric    2020             436948.                     0.481
#>  2 automotive  electric    2021             442439.                     0.480
#>  3 automotive  electric    2022             447929.                     0.480
#>  4 automotive  electric    2023             453420.                     0.479
#>  5 automotive  electric    2024             458910.                     0.479
#>  6 automotive  electric    2025             464401.                     0.479
#>  7 automotive  electric    2026                 NA                     NA    
#>  8 automotive  electric    2027                 NA                     NA    
#>  9 automotive  electric    2028                 NA                     NA    
#> 10 automotive  electric    2029                 NA                     NA    
#> # ℹ 158 more rows
```
…
To calculate the weighted percent change:

``` r
# using the master dataset defined in the previous chunk:
summarize_weighted_percent_change(master)
#> Warning: `summarize_weighted_percent_change()` was deprecated in r2dii.analysis 0.5.0.
#> This warning is displayed once per session.
#> Call `lifecycle::last_lifecycle_warnings()` to see where this warning was
#> generated.
#> # A tibble: 168 × 4
#>    sector_abcd technology  year weighted_percent_change
#>    <chr>       <chr>      <int>                   <dbl>
#>  1 automotive  electric    2020               0        
#>  2 automotive  electric    2021               0.0000626
#>  3 automotive  electric    2022               0.000125 
#>  4 automotive  electric    2023               0.000188 
#>  5 automotive  electric    2024               0.000250 
#>  6 automotive  electric    2025               0.000313 
#>  7 automotive  electric    2026              NA        
#>  8 automotive  electric    2027              NA        
#>  9 automotive  electric    2028              NA        
#> 10 automotive  electric    2029              NA        
#> # ℹ 158 more rows
```
