Market Share Approach • r2dii.analysis
…
library(r2dii.data)
library(r2dii.match)
library(r2dii.analysis)

Match the loanbook to asset level data.

loanbook <- r2dii.data::loanbook_demo
ald <- r2dii.data::ald_demo

matched <- match_name(loanbook, ald) %>% 
  # WARNING: Remember to validate the output of match_name() before prioritize()
  prioritize()

matched
#> # A tibble: 267 x 27
#>    id_loan id_direct_loant… name_direct_loa… id_intermediate… name_intermedia…
#>    <chr>   <chr>            <chr>            <chr>            <chr>           
#>  1 L151    C168             Shaanxi Auto     <NA>             <NA>            
#>  2 L152    C169             Shandong Auto    <NA>             <NA>            
#>  3 L153    C170             Shandong Kama    <NA>             <NA>            
#>  4 L154    C171             Shandong Tangju… <NA>             <NA>            
#>  5 L155    C173             Shanghai Automo… <NA>             <NA>            
#>  6 L156    C176             Shanxi Dayun     <NA>             <NA>            
#>  7 L157    C178             Shenyang Polars… <NA>             <NA>            
#>  8 L158    C180             Shuanghuan Auto  <NA>             <NA>            
#>  9 L159    C182             Sichuan Auto     <NA>             <NA>            
#> 10 L160    C184             Singulato        <NA>             <NA>            
#> # … with 257 more rows, and 22 more variables: id_ultimate_parent <chr>,
#> #   name_ultimate_parent <chr>, loan_size_outstanding <dbl>,
#> #   loan_size_outstanding_currency <chr>, loan_size_credit_limit <dbl>,
#> #   loan_size_credit_limit_currency <chr>, sector_classification_system <chr>,
#> #   sector_classification_input_type <chr>,
#> #   sector_classification_direct_loantaker <dbl>, fi_type <chr>,
#> #   flag_project_finance_loan <chr>, name_project <lgl>,
#> #   lei_direct_loantaker <lgl>, isin_direct_loantaker <lgl>, id_2dii <chr>,
#> #   level <chr>, sector <chr>, sector_ald <chr>, name <chr>, name_ald <chr>,
#> #   score <dbl>, source <chr>

Calculate Market Share targets for production.

production_scenario <- r2dii.data::scenario_demo_2020

# portfolio level targets
matched %>% 
  join_ald_scenario(ald, 
                    production_scenario,
                    region_isos = region_isos_demo) %>%
  summarize_portfolio_production() %>% 
  target_market_share_portfolio()
#> # A tibble: 936 x 6
#>    sector    technology  year region weighted_production_… weighted_production_…
#>    <chr>     <chr>      <int> <chr>  <chr>                                 <dbl>
#>  1 automoti… electric    2020 global portfolio                           148935.
#>  2 automoti… electric    2020 global target_cps                          148935.
#>  3 automoti… electric    2020 global target_sds                          148935.
#>  4 automoti… electric    2020 global target_sps                          148935.
#>  5 automoti… electric    2021 global portfolio                           150875.
#>  6 automoti… electric    2021 global target_cps                          151589.
#>  7 automoti… electric    2021 global target_sds                          165045.
#>  8 automoti… electric    2021 global target_sps                          152307.
#>  9 automoti… electric    2022 global portfolio                           152816.
#> 10 automoti… electric    2022 global target_cps                          154188.
#> # … with 926 more rows

# company level targets
matched %>% 
  join_ald_scenario(ald, 
                    production_scenario,
                    region_isos = region_isos_demo) %>%
  summarize_company_production() %>% 
  target_market_share_company()
#> # A tibble: 12,756 x 7
#>    sector  technology  year name_ald    region weighted_produc… weighted_produc…
#>    <chr>   <chr>      <int> <chr>       <chr>  <chr>                       <dbl>
#>  1 automo… electric    2020 shanghai a… global company                     5140.
#>  2 automo… electric    2020 shanghai a… global target_cps                  5140.
#>  3 automo… electric    2020 shanghai a… global target_sds                  5140.
#>  4 automo… electric    2020 shanghai a… global target_sps                  5140.
#>  5 automo… electric    2020 sichuan au… global company                     5985.
#>  6 automo… electric    2020 sichuan au… global target_cps                  5985.
#>  7 automo… electric    2020 sichuan au… global target_sds                  5985.
#>  8 automo… electric    2020 sichuan au… global target_sps                  5985.
#>  9 automo… electric    2020 singulato   global company                     8674.
#> 10 automo… electric    2020 singulato   global target_cps                  8674.
#> # … with 12,746 more rows
…
