Sectoral Decarbonization Approach (SDA) • r2dii.analysis
…
Match the loanbook to asset level data.

loanbook <- r2dii.data::loanbook_demo
ald <- r2dii.data::ald_demo

matched <- match_name(loanbook, ald) %>%
  # WARNING: Remember to validate the output of match_name() before prioritize()
  prioritize()

matched
#> # A tibble: 267 x 28
#>    rowid id_loan id_direct_loant… name_direct_loa… id_intermediate…
#>    <int> <chr>   <chr>            <chr>            <chr>           
#>  1     6 L6      C304             Yukon Developme… <NA>            
#>  2    13 L13     C297             Yuba City Cogen… <NA>            
#>  3    20 L20     C287             Ytl Powerseraya… <NA>            
#>  4    21 L21     C286             Ytl Power Inter… <NA>            
#>  5    22 L22     C285             Ytl Corp Bhd     <NA>            
#>  6    23 L23     C283             Ypic Internatio… <NA>            
#>  7    24 L24     C282             Ypfb Corporacion <NA>            
#>  8    25 L25     C281             Ypf Sa           <NA>            
#>  9    26 L26     C280             Ypf Energia Ele… <NA>            
#> 10    27 L27     C278             Younicos Ag      <NA>            
#> # … with 257 more rows, and 23 more variables:
#> #   name_intermediate_parent_1 <chr>, id_ultimate_parent <chr>,
#> #   name_ultimate_parent <chr>, loan_size_outstanding <dbl>,
#> #   loan_size_outstanding_currency <chr>, loan_size_credit_limit <dbl>,
#> #   loan_size_credit_limit_currency <chr>, sector_classification_system <chr>,
#> #   sector_classification_input_type <chr>,
#> #   sector_classification_direct_loantaker <dbl>, fi_type <chr>,
#> #   flag_project_finance_loan <chr>, name_project <lgl>,
#> #   lei_direct_loantaker <lgl>, isin_direct_loantaker <lgl>, id_2dii <chr>,
#> #   level <chr>, sector <chr>, sector_ald <chr>, name <chr>, name_ald <chr>,
#> #   score <dbl>, source <chr>

Calculate SDA targets for CO2 emissions intensities:

co2_intensity <- r2dii.data::co2_intensity_scenario_demo

matched %>% target_sda(ald, co2_intensity)
#> # A tibble: 28 x 4
#>    sector  year emission_factor_metric emission_factor_value
#>    <chr>  <dbl> <chr>                                  <dbl>
#>  1 cement  2020 projected                              0.664
#>  2 cement  2020 target                                 0.669
#>  3 cement  2020 scenario_benchmark                     0.7  
#>  4 cement  2021 projected                              0.665
#>  5 cement  2021 target                                 0.612
#>  6 cement  2021 scenario_benchmark                     0.64 
#>  7 cement  2022 projected                              0.666
#>  8 cement  2022 target                                 0.555
#>  9 cement  2022 scenario_benchmark                     0.580
#> 10 cement  2023 projected                              0.667
#> # … with 18 more rows
…
